:03000000020016E5
:0300030002006395
:1000130002006DD2AFD2AAD2A87580007590007588
:10002300A000781C791C7A087B01308003120059E8
:1000330030810312004F12003E80EF889075A001BB
:1000430075A000899075A08075A00022B9E0030215
:100053000058E903F922B90703020062E923F922F0
:10006300B8E00302006CE803F832B8070302007635
:04007300E823F83254
:00000001FF
